<mxfile host="Electron" modified="2023-05-08T12:59:42.406Z" agent="Mozilla/5.0 (Windows NT 10.0; Win64; x64) AppleWebKit/537.36 (KHTML, like Gecko) draw.io/21.2.1 Chrome/112.0.5615.87 Electron/24.1.2 Safari/537.36" etag="AiVTjaf2YlFETnJsoBOt" version="21.2.1" type="device">
  <diagram name="Seite-1" id="XrcUGPCPPn0Geherlqxc">
    <mxGraphModel dx="780" dy="595" grid="1" gridSize="10" guides="1" tooltips="1" connect="1" arrows="1" fold="1" page="1" pageScale="1" pageWidth="827" pageHeight="1169" math="0" shadow="0">
      <root>
        <mxCell id="0" />
        <mxCell id="1" parent="0" />
        <mxCell id="dXkzYet6hyglrAFqiuuY-1" value="&lt;p style=&quot;line-height: 0%;&quot;&gt;&lt;b&gt;ESP32&lt;/b&gt;&lt;/p&gt;" style="sketch=0;outlineConnect=0;fontColor=#232F3E;gradientColor=none;fillColor=#3F8624;strokeColor=none;dashed=0;verticalLabelPosition=bottom;verticalAlign=top;align=center;html=1;fontSize=12;fontStyle=0;aspect=fixed;pointerEvents=1;shape=mxgraph.aws4.hardware_board;labelPadding=20;noLabel=0;direction=east;treeFolding=0;treeMoving=0;comic=0;metaEdit=0;movableLabel=1;" parent="1" vertex="1">
          <mxGeometry x="350" y="180" width="78" height="78" as="geometry">
            <mxPoint x="1" y="-107" as="offset" />
          </mxGeometry>
        </mxCell>
        <mxCell id="dXkzYet6hyglrAFqiuuY-4" value="" style="edgeStyle=orthogonalEdgeStyle;rounded=0;orthogonalLoop=1;jettySize=auto;html=1;" parent="1" source="dXkzYet6hyglrAFqiuuY-1" target="dXkzYet6hyglrAFqiuuY-3" edge="1">
          <mxGeometry relative="1" as="geometry" />
        </mxCell>
        <mxCell id="dXkzYet6hyglrAFqiuuY-5" value="" style="rounded=1;whiteSpace=wrap;html=1;align=center;imageAlign=center;imageVerticalAlign=top;noLabel=0;labelPadding=5;direction=east;arcSize=12;" parent="1" vertex="1">
          <mxGeometry x="50" y="270" width="290" height="290" as="geometry" />
        </mxCell>
        <mxCell id="dXkzYet6hyglrAFqiuuY-6" value="" style="edgeStyle=orthogonalEdgeStyle;rounded=0;orthogonalLoop=1;jettySize=auto;html=1;" parent="1" source="dXkzYet6hyglrAFqiuuY-1" target="dXkzYet6hyglrAFqiuuY-5" edge="1">
          <mxGeometry relative="1" as="geometry" />
        </mxCell>
        <mxCell id="REPv2I7dR_Lz2NyVquxV-3" value="" style="group" parent="1" vertex="1" connectable="0">
          <mxGeometry x="440" y="250" width="270" height="160" as="geometry" />
        </mxCell>
        <mxCell id="dXkzYet6hyglrAFqiuuY-3" value="" style="rounded=1;whiteSpace=wrap;html=1;" parent="REPv2I7dR_Lz2NyVquxV-3" vertex="1">
          <mxGeometry x="15" y="16" width="250" height="144" as="geometry" />
        </mxCell>
        <mxCell id="dXkzYet6hyglrAFqiuuY-8" value="&lt;b&gt;IOT-Stack (Virtualbox)&lt;/b&gt;" style="text;html=1;strokeColor=none;fillColor=none;align=center;verticalAlign=middle;whiteSpace=wrap;rounded=0;" parent="REPv2I7dR_Lz2NyVquxV-3" vertex="1">
          <mxGeometry y="16" width="270" height="30" as="geometry" />
        </mxCell>
        <mxCell id="dXkzYet6hyglrAFqiuuY-25" value="" style="outlineConnect=0;dashed=0;verticalLabelPosition=bottom;verticalAlign=top;align=center;html=1;shape=mxgraph.aws3.mqtt_protocol;fillColor=#5294CF;gradientColor=none;" parent="REPv2I7dR_Lz2NyVquxV-3" vertex="1">
          <mxGeometry x="25" y="56" width="63" height="66" as="geometry" />
        </mxCell>
        <mxCell id="dXkzYet6hyglrAFqiuuY-26" value="&lt;b&gt;Externe Dienste &lt;br&gt;(Grafana, ...)&lt;/b&gt;" style="aspect=fixed;html=1;points=[];align=center;image;fontSize=12;image=img/lib/azure2/other/Grafana.svg;" parent="REPv2I7dR_Lz2NyVquxV-3" vertex="1">
          <mxGeometry x="168" y="56" width="85" height="66" as="geometry" />
        </mxCell>
        <mxCell id="REPv2I7dR_Lz2NyVquxV-2" value="" style="shadow=0;dashed=0;html=1;labelPosition=center;verticalLabelPosition=bottom;verticalAlign=top;align=center;outlineConnect=0;shape=mxgraph.veeam.3d.vm_running;" parent="REPv2I7dR_Lz2NyVquxV-3" vertex="1">
          <mxGeometry width="56" height="46" as="geometry" />
        </mxCell>
        <mxCell id="dXkzYet6hyglrAFqiuuY-27" value="" style="edgeStyle=orthogonalEdgeStyle;rounded=0;orthogonalLoop=1;jettySize=auto;html=1;startArrow=classic;startFill=1;" parent="REPv2I7dR_Lz2NyVquxV-3" source="dXkzYet6hyglrAFqiuuY-25" target="dXkzYet6hyglrAFqiuuY-26" edge="1">
          <mxGeometry relative="1" as="geometry" />
        </mxCell>
        <mxCell id="REPv2I7dR_Lz2NyVquxV-5" value="" style="rounded=1;whiteSpace=wrap;html=1;align=left;" parent="1" vertex="1">
          <mxGeometry x="70" y="310" width="250" height="70" as="geometry" />
        </mxCell>
        <mxCell id="REPv2I7dR_Lz2NyVquxV-7" value="" style="rounded=1;whiteSpace=wrap;html=1;" parent="1" vertex="1">
          <mxGeometry x="70" y="400" width="250" height="130" as="geometry" />
        </mxCell>
        <mxCell id="REPv2I7dR_Lz2NyVquxV-8" value="" style="edgeStyle=orthogonalEdgeStyle;rounded=0;orthogonalLoop=1;jettySize=auto;html=1;" parent="1" source="REPv2I7dR_Lz2NyVquxV-5" target="REPv2I7dR_Lz2NyVquxV-7" edge="1">
          <mxGeometry relative="1" as="geometry" />
        </mxCell>
        <mxCell id="REPv2I7dR_Lz2NyVquxV-9" value="&lt;b&gt;Lokaler Webserver&lt;/b&gt;" style="text;html=1;strokeColor=none;fillColor=none;align=center;verticalAlign=middle;whiteSpace=wrap;rounded=0;" parent="1" vertex="1">
          <mxGeometry x="50" y="280" width="290" height="30" as="geometry" />
        </mxCell>
        <mxCell id="dXkzYet6hyglrAFqiuuY-9" value="&lt;b&gt;WLAN Access Point&lt;br&gt;&lt;/b&gt;&lt;ul style=&quot;border-color: var(--border-color); line-height: 14.4px;&quot;&gt;&lt;li&gt;&lt;span style=&quot;background-color: initial;&quot;&gt;Konfiguration der Zugangsdaten&lt;/span&gt;&lt;/li&gt;&lt;li style=&quot;border-color: var(--border-color);&quot;&gt;Messdatenübersicht&lt;/li&gt;&lt;/ul&gt;" style="text;html=1;strokeColor=none;fillColor=none;align=left;verticalAlign=middle;whiteSpace=wrap;rounded=0;" parent="1" vertex="1">
          <mxGeometry x="80" y="340" width="230" height="30" as="geometry" />
        </mxCell>
        <mxCell id="REPv2I7dR_Lz2NyVquxV-10" value="&lt;b&gt;WLAN Client&lt;/b&gt;&lt;br&gt;&lt;ul style=&quot;&quot;&gt;&lt;li style=&quot;&quot;&gt;&lt;span style=&quot;background-color: initial;&quot;&gt;Messdatenübersicht&lt;/span&gt;&lt;/li&gt;&lt;li style=&quot;&quot;&gt;&lt;span style=&quot;background-color: initial;&quot;&gt;Verbindung zu MQTT-Server&lt;/span&gt;&lt;/li&gt;&lt;li style=&quot;&quot;&gt;&lt;span style=&quot;background-color: initial;&quot;&gt;...&lt;/span&gt;&lt;/li&gt;&lt;/ul&gt;" style="text;html=1;strokeColor=none;fillColor=none;align=left;verticalAlign=middle;whiteSpace=wrap;rounded=0;" parent="1" vertex="1">
          <mxGeometry x="80" y="440" width="230" height="30" as="geometry" />
        </mxCell>
        <mxCell id="REPv2I7dR_Lz2NyVquxV-20" value="" style="rounded=1;whiteSpace=wrap;html=1;arcSize=12;" parent="1" vertex="1">
          <mxGeometry x="460" y="440" width="240" height="120" as="geometry" />
        </mxCell>
        <mxCell id="REPv2I7dR_Lz2NyVquxV-21" value="" style="edgeStyle=orthogonalEdgeStyle;rounded=0;orthogonalLoop=1;jettySize=auto;html=1;" parent="1" source="dXkzYet6hyglrAFqiuuY-1" target="REPv2I7dR_Lz2NyVquxV-20" edge="1">
          <mxGeometry relative="1" as="geometry">
            <Array as="points">
              <mxPoint x="390" y="480" />
            </Array>
          </mxGeometry>
        </mxCell>
        <mxCell id="REPv2I7dR_Lz2NyVquxV-23" value="" style="verticalLabelPosition=bottom;sketch=0;html=1;fillColor=#6ABD46;strokeColor=#ffffff;verticalAlign=top;align=center;points=[[0.085,0.085,0],[0.915,0.085,0],[0.915,0.915,0],[0.085,0.915,0],[0.25,0,0],[0.5,0,0],[0.75,0,0],[1,0.25,0],[1,0.5,0],[1,0.75,0],[0.75,1,0],[0.5,1,0],[0.25,1,0],[0,0.75,0],[0,0.5,0],[0,0.25,0]];pointerEvents=1;shape=mxgraph.cisco_safe.compositeIcon;bgIcon=mxgraph.cisco_safe.architecture.generic_appliance;resIcon=mxgraph.cisco_safe.architecture.sensor;" parent="1" vertex="1">
          <mxGeometry x="450" y="420" width="40" height="43" as="geometry" />
        </mxCell>
        <mxCell id="REPv2I7dR_Lz2NyVquxV-24" value="" style="sketch=0;outlineConnect=0;fontColor=#232F3E;gradientColor=none;fillColor=#3F8624;strokeColor=none;dashed=0;verticalLabelPosition=bottom;verticalAlign=top;align=center;html=1;fontSize=12;fontStyle=0;aspect=fixed;pointerEvents=1;shape=mxgraph.aws4.iot_thing_temperature_sensor;" parent="1" vertex="1">
          <mxGeometry x="562.05" y="480" width="40" height="40" as="geometry" />
        </mxCell>
        <mxCell id="REPv2I7dR_Lz2NyVquxV-25" value="" style="sketch=0;outlineConnect=0;fontColor=#232F3E;gradientColor=none;fillColor=#3F8624;strokeColor=none;dashed=0;verticalLabelPosition=bottom;verticalAlign=top;align=center;html=1;fontSize=12;fontStyle=0;aspect=fixed;pointerEvents=1;shape=mxgraph.aws4.iot_thing_humidity_sensor;" parent="1" vertex="1">
          <mxGeometry x="489.99999999999994" y="480" width="40" height="40" as="geometry" />
        </mxCell>
        <mxCell id="REPv2I7dR_Lz2NyVquxV-26" value="" style="sketch=0;outlineConnect=0;fontColor=#232F3E;gradientColor=none;fillColor=#3F8624;strokeColor=none;dashed=0;verticalLabelPosition=bottom;verticalAlign=top;align=center;html=1;fontSize=12;fontStyle=0;aspect=fixed;pointerEvents=1;shape=mxgraph.aws4.sensor;" parent="1" vertex="1">
          <mxGeometry x="642.05" y="480" width="35.9" height="40" as="geometry" />
        </mxCell>
        <mxCell id="REPv2I7dR_Lz2NyVquxV-32" value="&lt;b&gt;Sensorik&lt;/b&gt;" style="text;html=1;strokeColor=none;fillColor=none;align=center;verticalAlign=middle;whiteSpace=wrap;rounded=0;" parent="1" vertex="1">
          <mxGeometry x="460" y="440" width="240" height="30" as="geometry" />
        </mxCell>
        <mxCell id="nwODP_CKG_N4okPkVdGp-1" value="" style="image;aspect=fixed;html=1;points=[];align=center;fontSize=12;image=img/lib/azure2/general/Website_Staging.svg;" parent="1" vertex="1">
          <mxGeometry x="37.94" y="258" width="42.06" height="46" as="geometry" />
        </mxCell>
      </root>
    </mxGraphModel>
  </diagram>
</mxfile>
